<?xml version="1.0" encoding="UTF-8" standalone="no"?>
<!DOCTYPE svg PUBLIC "-//W3C//DTD SVG 1.1//EN"
 "http://www.w3.org/Graphics/SVG/1.1/DTD/svg11.dtd">
<!-- Generated by graphviz version 2.40.1 (20161225.0304)
 -->
<!-- Title: dependencies Pages: 1 -->
<svg width="1114pt" height="284pt"
 viewBox="0.00 0.00 1114.00 284.00" xmlns="http://www.w3.org/2000/svg" xmlns:xlink="http://www.w3.org/1999/xlink">
<g id="graph0" class="graph" transform="scale(1 1) rotate(0) translate(4 280)">
<title>dependencies</title>
<polygon fill="#ffffff" stroke="transparent" points="-4,4 -4,-280 1110,-280 1110,4 -4,4"/>
<text text-anchor="start" x="532.0091" y="-42.4" font-family="sans-serif" font-weight="bold" font-size="14.00" fill="#000000">Legend</text>
<polygon fill="#ffffb3" stroke="transparent" points="319,-10 319,-30 339,-30 339,-10 319,-10"/>
<text text-anchor="start" x="342.629" y="-15.4" font-family="sans-serif" font-size="14.00" fill="#000000"> &#160;Declarations</text>
<polygon fill="#8dd3c7" stroke="transparent" points="432,-10 432,-30 452,-30 452,-10 432,-10"/>
<text text-anchor="start" x="455.7251" y="-15.4" font-family="sans-serif" font-size="14.00" fill="#000000"> &#160;Module</text>
<polygon fill="#80b1d3" stroke="transparent" points="518,-10 518,-30 538,-30 538,-10 518,-10"/>
<text text-anchor="start" x="541.7812" y="-15.4" font-family="sans-serif" font-size="14.00" fill="#000000"> &#160;Bootstrap</text>
<polygon fill="#fdb462" stroke="transparent" points="615,-10 615,-30 635,-30 635,-10 615,-10"/>
<text text-anchor="start" x="638.6732" y="-15.4" font-family="sans-serif" font-size="14.00" fill="#000000"> &#160;Providers</text>
<polygon fill="#fb8072" stroke="transparent" points="711,-10 711,-30 731,-30 731,-10 711,-10"/>
<text text-anchor="start" x="734.7258" y="-15.4" font-family="sans-serif" font-size="14.00" fill="#000000"> &#160;Exports</text>
<g id="clust1" class="cluster">
<title>cluster_PurchaseModule</title>
<polygon fill="none" stroke="#000000" stroke-dasharray="1,5" points="8,-70 8,-268 1098,-268 1098,-70 8,-70"/>
</g>
<g id="clust2" class="cluster">
<title>cluster_PurchaseModule_declarations</title>
<polygon fill="none" stroke="#000000" points="351,-78 351,-130 1090,-130 1090,-78 351,-78"/>
</g>
<g id="clust7" class="cluster">
<title>cluster_PurchaseModule_imports</title>
<polygon fill="none" stroke="#000000" points="16,-78 16,-130 343,-130 343,-78 16,-78"/>
</g>
<g id="clust8" class="cluster">
<title>cluster_PurchaseModule_exports</title>
<polygon fill="none" stroke="#000000" points="142,-208 142,-260 895,-260 895,-208 142,-208"/>
</g>
<!-- PurchaseComponent -->
<g id="node1" class="node">
<title>PurchaseComponent</title>
<polygon fill="#ffffb3" stroke="#000000" points="1081.8641,-122 950.1359,-122 950.1359,-86 1081.8641,-86 1081.8641,-122"/>
<text text-anchor="middle" x="1016" y="-99.8" font-family="Times,serif" font-size="14.00" fill="#000000">PurchaseComponent</text>
</g>
<!-- PurchaseModule -->
<g id="node5" class="node">
<title>PurchaseModule</title>
<polygon fill="#8dd3c7" stroke="#000000" points="601.0814,-187 598.0814,-191 577.0814,-191 574.0814,-187 490.9186,-187 490.9186,-151 601.0814,-151 601.0814,-187"/>
<text text-anchor="middle" x="546" y="-164.8" font-family="Times,serif" font-size="14.00" fill="#000000">PurchaseModule</text>
</g>
<!-- PurchaseComponent&#45;&gt;PurchaseModule -->
<g id="edge1" class="edge">
<title>PurchaseComponent&#45;&gt;PurchaseModule</title>
<path fill="none" stroke="#000000" d="M1016,-122.1061C1016,-141.3391 1016,-169 1016,-169 1016,-169 611.2971,-169 611.2971,-169"/>
<polygon fill="#000000" stroke="#000000" points="611.2971,-165.5001 601.2971,-169 611.297,-172.5001 611.2971,-165.5001"/>
</g>
<!-- PurchaseClassicComponent -->
<g id="node2" class="node">
<title>PurchaseClassicComponent</title>
<polygon fill="#ffffb3" stroke="#000000" points="932.3005,-122 759.6995,-122 759.6995,-86 932.3005,-86 932.3005,-122"/>
<text text-anchor="middle" x="846" y="-99.8" font-family="Times,serif" font-size="14.00" fill="#000000">PurchaseClassicComponent</text>
</g>
<!-- PurchaseClassicComponent&#45;&gt;PurchaseModule -->
<g id="edge2" class="edge">
<title>PurchaseClassicComponent&#45;&gt;PurchaseModule</title>
<path fill="none" stroke="#000000" d="M823.266,-122.027C823.266,-138.3976 823.266,-160 823.266,-160 823.266,-160 611.1103,-160 611.1103,-160"/>
<polygon fill="#000000" stroke="#000000" points="611.1104,-156.5001 601.1103,-160 611.1103,-163.5001 611.1104,-156.5001"/>
</g>
<!-- PurchaseStandoutComponent -->
<g id="node3" class="node">
<title>PurchaseStandoutComponent</title>
<polygon fill="#ffffb3" stroke="#000000" points="741.6428,-122 560.3572,-122 560.3572,-86 741.6428,-86 741.6428,-122"/>
<text text-anchor="middle" x="651" y="-99.8" font-family="Times,serif" font-size="14.00" fill="#000000">PurchaseStandoutComponent</text>
</g>
<!-- PurchaseStandoutComponent&#45;&gt;PurchaseModule -->
<g id="edge3" class="edge">
<title>PurchaseStandoutComponent&#45;&gt;PurchaseModule</title>
<path fill="none" stroke="#000000" d="M580.6098,-122.1061C580.6098,-122.1061 580.6098,-140.991 580.6098,-140.991"/>
<polygon fill="#000000" stroke="#000000" points="577.1098,-140.9909 580.6098,-150.991 584.1098,-140.991 577.1098,-140.9909"/>
</g>
<!-- PurchasePremiumComponent -->
<g id="node4" class="node">
<title>PurchasePremiumComponent</title>
<polygon fill="#ffffb3" stroke="#000000" points="542.6937,-122 359.3063,-122 359.3063,-86 542.6937,-86 542.6937,-122"/>
<text text-anchor="middle" x="451" y="-99.8" font-family="Times,serif" font-size="14.00" fill="#000000">PurchasePremiumComponent</text>
</g>
<!-- PurchasePremiumComponent&#45;&gt;PurchaseModule -->
<g id="edge4" class="edge">
<title>PurchasePremiumComponent&#45;&gt;PurchaseModule</title>
<path fill="none" stroke="#000000" d="M516.7781,-122.1061C516.7781,-122.1061 516.7781,-140.991 516.7781,-140.991"/>
<polygon fill="#000000" stroke="#000000" points="513.2781,-140.9909 516.7781,-150.991 520.2781,-140.991 513.2781,-140.9909"/>
</g>
<!-- PurchaseComponent  -->
<g id="node8" class="node">
<title>PurchaseComponent </title>
<polygon fill="#fb8072" stroke="#000000" points="886.8645,-252 751.1355,-252 751.1355,-216 886.8645,-216 886.8645,-252"/>
<text text-anchor="middle" x="819" y="-229.8" font-family="Times,serif" font-size="14.00" fill="#000000">PurchaseComponent </text>
</g>
<!-- PurchaseModule&#45;&gt;PurchaseComponent  -->
<g id="edge7" class="edge">
<title>PurchaseModule&#45;&gt;PurchaseComponent </title>
<path fill="none" stroke="#000000" stroke-dasharray="5,2" d="M601.0657,-178C663.1618,-178 755.584,-178 755.584,-178 755.584,-178 755.584,-205.973 755.584,-205.973"/>
<polygon fill="#000000" stroke="#000000" points="752.084,-205.973 755.584,-215.973 759.084,-205.973 752.084,-205.973"/>
</g>
<!-- PurchaseClassicComponent  -->
<g id="node9" class="node">
<title>PurchaseClassicComponent </title>
<polygon fill="#fb8072" stroke="#000000" points="732.8003,-252 557.1997,-252 557.1997,-216 732.8003,-216 732.8003,-252"/>
<text text-anchor="middle" x="645" y="-229.8" font-family="Times,serif" font-size="14.00" fill="#000000">PurchaseClassicComponent </text>
</g>
<!-- PurchaseModule&#45;&gt;PurchaseClassicComponent  -->
<g id="edge8" class="edge">
<title>PurchaseModule&#45;&gt;PurchaseClassicComponent </title>
<path fill="none" stroke="#000000" stroke-dasharray="5,2" d="M579.0703,-187.1061C579.0703,-187.1061 579.0703,-205.991 579.0703,-205.991"/>
<polygon fill="#000000" stroke="#000000" points="575.5704,-205.9909 579.0703,-215.991 582.5704,-205.991 575.5704,-205.9909"/>
</g>
<!-- PurchaseStandoutComponent  -->
<g id="node10" class="node">
<title>PurchaseStandoutComponent </title>
<polygon fill="#fb8072" stroke="#000000" points="539.6425,-252 354.3575,-252 354.3575,-216 539.6425,-216 539.6425,-252"/>
<text text-anchor="middle" x="447" y="-229.8" font-family="Times,serif" font-size="14.00" fill="#000000">PurchaseStandoutComponent </text>
</g>
<!-- PurchaseModule&#45;&gt;PurchaseStandoutComponent  -->
<g id="edge9" class="edge">
<title>PurchaseModule&#45;&gt;PurchaseStandoutComponent </title>
<path fill="none" stroke="#000000" stroke-dasharray="5,2" d="M515.2652,-187.1061C515.2652,-187.1061 515.2652,-205.991 515.2652,-205.991"/>
<polygon fill="#000000" stroke="#000000" points="511.7653,-205.9909 515.2652,-215.991 518.7653,-205.991 511.7653,-205.9909"/>
</g>
<!-- PurchasePremiumComponent  -->
<g id="node11" class="node">
<title>PurchasePremiumComponent </title>
<polygon fill="#fb8072" stroke="#000000" points="336.1939,-252 149.8061,-252 149.8061,-216 336.1939,-216 336.1939,-252"/>
<text text-anchor="middle" x="243" y="-229.8" font-family="Times,serif" font-size="14.00" fill="#000000">PurchasePremiumComponent </text>
</g>
<!-- PurchaseModule&#45;&gt;PurchasePremiumComponent  -->
<g id="edge10" class="edge">
<title>PurchaseModule&#45;&gt;PurchasePremiumComponent </title>
<path fill="none" stroke="#000000" stroke-dasharray="5,2" d="M490.7701,-178C396.3062,-178 213.7946,-178 213.7946,-178 213.7946,-178 213.7946,-205.973 213.7946,-205.973"/>
<polygon fill="#000000" stroke="#000000" points="210.2947,-205.973 213.7946,-215.973 217.2947,-205.973 210.2947,-205.973"/>
</g>
<!-- RouterModule.forChild(args) -->
<g id="node6" class="node">
<title>RouterModule.forChild(args)</title>
<polygon fill="#8dd3c7" stroke="#000000" points="334.7323,-122 331.7323,-126 310.7323,-126 307.7323,-122 153.2677,-122 153.2677,-86 334.7323,-86 334.7323,-122"/>
<text text-anchor="middle" x="244" y="-99.8" font-family="Times,serif" font-size="14.00" fill="#000000">RouterModule.forChild(args)</text>
</g>
<!-- RouterModule.forChild(args)&#45;&gt;PurchaseModule -->
<g id="edge5" class="edge">
<title>RouterModule.forChild(args)&#45;&gt;PurchaseModule</title>
<path fill="none" stroke="#000000" d="M274.2054,-122.027C274.2054,-138.3976 274.2054,-160 274.2054,-160 274.2054,-160 480.6707,-160 480.6707,-160"/>
<polygon fill="#000000" stroke="#000000" points="480.6707,-163.5001 490.6707,-160 480.6707,-156.5001 480.6707,-163.5001"/>
</g>
<!-- CommonModule -->
<g id="node7" class="node">
<title>CommonModule</title>
<polygon fill="#8dd3c7" stroke="#000000" points="135.6681,-122 132.6681,-126 111.6681,-126 108.6681,-122 24.3319,-122 24.3319,-86 135.6681,-86 135.6681,-122"/>
<text text-anchor="middle" x="80" y="-99.8" font-family="Times,serif" font-size="14.00" fill="#000000">CommonModule</text>
</g>
<!-- CommonModule&#45;&gt;PurchaseModule -->
<g id="edge6" class="edge">
<title>CommonModule&#45;&gt;PurchaseModule</title>
<path fill="none" stroke="#000000" d="M80,-122.1061C80,-141.3391 80,-169 80,-169 80,-169 480.7137,-169 480.7137,-169"/>
<polygon fill="#000000" stroke="#000000" points="480.7138,-172.5001 490.7137,-169 480.7137,-165.5001 480.7138,-172.5001"/>
</g>
</g>
</svg>
